<?xml version="1.0" encoding="UTF-8"?>
<testsuite xmlns:xsi="http://www.w3.org/2001/XMLSchema-instance" xsi:noNamespaceSchemaLocation="https://maven.apache.org/surefire/maven-surefire-plugin/xsd/surefire-test-report-3.0.xsd" version="3.0" name="com.RestAPIAutomationWithCucumber.qa.runner.RunnerTest" time="4.322" tests="5" errors="0" skipped="0" failures="0">
  <properties>
    <property name="java.specification.version" value="21"/>
    <property name="sun.cpu.isalist" value="amd64"/>
    <property name="sun.jnu.encoding" value="Cp1252"/>
    <property name="java.class.path" value="F:\Sumit_Project_Works\RestAPIAutomationWithCucumber\target\test-classes;F:\Sumit_Project_Works\RestAPIAutomationWithCucumber\target\classes;C:\Users\Sumit-Chaudhary\.m2\repository\net\sf\jxls\jxls-reader\1.0.6\jxls-reader-1.0.6.jar;C:\Users\Sumit-Chaudhary\.m2\repository\commons-logging\commons-logging\1.1.1\commons-logging-1.1.1.jar;C:\Users\Sumit-Chaudhary\.m2\repository\commons-beanutils\commons-beanutils\1.8.2\commons-beanutils-1.8.2.jar;C:\Users\Sumit-Chaudhary\.m2\repository\commons-collections\commons-collections\3.2.1\commons-collections-3.2.1.jar;C:\Users\Sumit-Chaudhary\.m2\repository\commons-digester\commons-digester\2.0\commons-digester-2.0.jar;C:\Users\Sumit-Chaudhary\.m2\repository\org\apache\commons\commons-jexl\2.0.1\commons-jexl-2.0.1.jar;C:\Users\Sumit-Chaudhary\.m2\repository\org\apache\poi\poi-ooxml\3.9\poi-ooxml-3.9.jar;C:\Users\Sumit-Chaudhary\.m2\repository\dom4j\dom4j\1.6.1\dom4j-1.6.1.jar;C:\Users\Sumit-Chaudhary\.m2\repository\xml-apis\xml-apis\1.0.b2\xml-apis-1.0.b2.jar;C:\Users\Sumit-Chaudhary\.m2\repository\com\opencsv\opencsv\4.1\opencsv-4.1.jar;C:\Users\Sumit-Chaudhary\.m2\repository\org\apache\commons\commons-lang3\3.6\commons-lang3-3.6.jar;C:\Users\Sumit-Chaudhary\.m2\repository\org\apache\commons\commons-text\1.1\commons-text-1.1.jar;C:\Users\Sumit-Chaudhary\.m2\repository\org\apache\poi\poi-ooxml-schemas\3.9\poi-ooxml-schemas-3.9.jar;C:\Users\Sumit-Chaudhary\.m2\repository\org\apache\xmlbeans\xmlbeans\2.3.0\xmlbeans-2.3.0.jar;C:\Users\Sumit-Chaudhary\.m2\repository\stax\stax-api\1.0.1\stax-api-1.0.1.jar;C:\Users\Sumit-Chaudhary\.m2\repository\org\apache\poi\poi-scratchpad\3.9\poi-scratchpad-3.9.jar;C:\Users\Sumit-Chaudhary\.m2\repository\org\apache\poi\ooxml-schemas\1.1\ooxml-schemas-1.1.jar;C:\Users\Sumit-Chaudhary\.m2\repository\org\apache\poi\openxml4j\1.0-beta\openxml4j-1.0-beta.jar;C:\Users\Sumit-Chaudhary\.m2\repository\log4j\log4j\1.2.8\log4j-1.2.8.jar;C:\Users\Sumit-Chaudhary\.m2\repository\org\apache\poi\poi\3.9\poi-3.9.jar;C:\Users\Sumit-Chaudhary\.m2\repository\commons-codec\commons-codec\1.5\commons-codec-1.5.jar;C:\Users\Sumit-Chaudhary\.m2\repository\io\qameta\allure\allure-rest-assured\2.17.2\allure-rest-assured-2.17.2.jar;C:\Users\Sumit-Chaudhary\.m2\repository\io\qameta\allure\allure-attachments\2.17.2\allure-attachments-2.17.2.jar;C:\Users\Sumit-Chaudhary\.m2\repository\org\freemarker\freemarker\2.3.31\freemarker-2.3.31.jar;C:\Users\Sumit-Chaudhary\.m2\repository\org\json\json\20180813\json-20180813.jar;C:\Users\Sumit-Chaudhary\.m2\repository\com\auth0\java-jwt\4.4.0\java-jwt-4.4.0.jar;C:\Users\Sumit-Chaudhary\.m2\repository\com\fasterxml\jackson\core\jackson-databind\2.14.2\jackson-databind-2.14.2.jar;C:\Users\Sumit-Chaudhary\.m2\repository\com\fasterxml\jackson\core\jackson-annotations\2.14.2\jackson-annotations-2.14.2.jar;C:\Users\Sumit-Chaudhary\.m2\repository\com\fasterxml\jackson\core\jackson-core\2.14.2\jackson-core-2.14.2.jar;C:\Users\Sumit-Chaudhary\.m2\repository\org\bitbucket\b_c\jose4j\0.9.3\jose4j-0.9.3.jar;C:\Users\Sumit-Chaudhary\.m2\repository\io\jsonwebtoken\jjwt\0.7.0\jjwt-0.7.0.jar;C:\Users\Sumit-Chaudhary\.m2\repository\com\nimbusds\nimbus-jose-jwt\9.31\nimbus-jose-jwt-9.31.jar;C:\Users\Sumit-Chaudhary\.m2\repository\com\github\stephenc\jcip\jcip-annotations\1.0-1\jcip-annotations-1.0-1.jar;C:\Users\Sumit-Chaudhary\.m2\repository\org\hamcrest\hamcrest-library\1.3\hamcrest-library-1.3.jar;C:\Users\Sumit-Chaudhary\.m2\repository\org\hamcrest\hamcrest-core\1.3\hamcrest-core-1.3.jar;C:\Users\Sumit-Chaudhary\.m2\repository\io\cucumber\cucumber-java\6.11.0\cucumber-java-6.11.0.jar;C:\Users\Sumit-Chaudhary\.m2\repository\io\cucumber\cucumber-core\6.11.0\cucumber-core-6.11.0.jar;C:\Users\Sumit-Chaudhary\.m2\repository\io\cucumber\cucumber-gherkin\6.11.0\cucumber-gherkin-6.11.0.jar;C:\Users\Sumit-Chaudhary\.m2\repository\io\cucumber\cucumber-gherkin-messages\6.11.0\cucumber-gherkin-messages-6.11.0.jar;C:\Users\Sumit-Chaudhary\.m2\repository\io\cucumber\messages\15.0.0\messages-15.0.0.jar;C:\Users\Sumit-Chaudhary\.m2\repository\io\cucumber\tag-expressions\3.0.1\tag-expressions-3.0.1.jar;C:\Users\Sumit-Chaudhary\.m2\repository\io\cucumber\cucumber-expressions\10.3.0\cucumber-expressions-10.3.0.jar;C:\Users\Sumit-Chaudhary\.m2\repository\io\cucumber\datatable\3.5.0\datatable-3.5.0.jar;C:\Users\Sumit-Chaudhary\.m2\repository\io\cucumber\cucumber-plugin\6.11.0\cucumber-plugin-6.11.0.jar;C:\Users\Sumit-Chaudhary\.m2\repository\io\cucumber\docstring\6.11.0\docstring-6.11.0.jar;C:\Users\Sumit-Chaudhary\.m2\repository\io\cucumber\html-formatter\13.0.0\html-formatter-13.0.0.jar;C:\Users\Sumit-Chaudhary\.m2\repository\io\cucumber\create-meta\4.0.0\create-meta-4.0.0.jar;C:\Users\Sumit-Chaudhary\.m2\repository\org\apiguardian\apiguardian-api\1.1.2\apiguardian-api-1.1.2.jar;C:\Users\Sumit-Chaudhary\.m2\repository\info\cukes\cucumber-jvm-deps\1.0.5\cucumber-jvm-deps-1.0.5.jar;C:\Users\Sumit-Chaudhary\.m2\repository\io\qameta\allure\allure-cucumber6-jvm\2.13.10\allure-cucumber6-jvm-2.13.10.jar;C:\Users\Sumit-Chaudhary\.m2\repository\io\qameta\allure\allure-java-commons\2.13.10\allure-java-commons-2.13.10.jar;C:\Users\Sumit-Chaudhary\.m2\repository\io\qameta\allure\allure-model\2.13.10\allure-model-2.13.10.jar;C:\Users\Sumit-Chaudhary\.m2\repository\org\apache\tika\tika-core\1.26\tika-core-1.26.jar;C:\Users\Sumit-Chaudhary\.m2\repository\javax\xml\bind\jaxb-api\2.3.1\jaxb-api-2.3.1.jar;C:\Users\Sumit-Chaudhary\.m2\repository\javax\activation\javax.activation-api\1.2.0\javax.activation-api-1.2.0.jar;C:\Users\Sumit-Chaudhary\.m2\repository\javax\activation\activation\1.1.1\activation-1.1.1.jar;C:\Users\Sumit-Chaudhary\.m2\repository\org\jooq\joor-java-8\0.9.14\joor-java-8-0.9.14.jar;C:\Users\Sumit-Chaudhary\.m2\repository\io\cucumber\gherkin\18.0.0\gherkin-18.0.0.jar;C:\Users\Sumit-Chaudhary\.m2\repository\commons-io\commons-io\2.6\commons-io-2.6.jar;C:\Users\Sumit-Chaudhary\.m2\repository\io\cucumber\cucumber-junit\6.11.0\cucumber-junit-6.11.0.jar;C:\Users\Sumit-Chaudhary\.m2\repository\org\assertj\assertj-core\3.9.1\assertj-core-3.9.1.jar;C:\Users\Sumit-Chaudhary\.m2\repository\org\junit\jupiter\junit-jupiter-engine\5.7.2\junit-jupiter-engine-5.7.2.jar;C:\Users\Sumit-Chaudhary\.m2\repository\org\junit\platform\junit-platform-engine\1.7.2\junit-platform-engine-1.7.2.jar;C:\Users\Sumit-Chaudhary\.m2\repository\org\opentest4j\opentest4j\1.2.0\opentest4j-1.2.0.jar;C:\Users\Sumit-Chaudhary\.m2\repository\org\junit\platform\junit-platform-commons\1.7.2\junit-platform-commons-1.7.2.jar;C:\Users\Sumit-Chaudhary\.m2\repository\org\junit\jupiter\junit-jupiter-api\5.7.2\junit-jupiter-api-5.7.2.jar;C:\Users\Sumit-Chaudhary\.m2\repository\org\junit\vintage\junit-vintage-engine\5.7.2\junit-vintage-engine-5.7.2.jar;C:\Users\Sumit-Chaudhary\.m2\repository\junit\junit\4.13\junit-4.13.jar;C:\Users\Sumit-Chaudhary\.m2\repository\io\rest-assured\rest-assured\4.3.1\rest-assured-4.3.1.jar;C:\Users\Sumit-Chaudhary\.m2\repository\org\codehaus\groovy\groovy\3.0.3\groovy-3.0.3.jar;C:\Users\Sumit-Chaudhary\.m2\repository\org\codehaus\groovy\groovy-xml\3.0.3\groovy-xml-3.0.3.jar;C:\Users\Sumit-Chaudhary\.m2\repository\org\apache\httpcomponents\httpclient\4.5.3\httpclient-4.5.3.jar;C:\Users\Sumit-Chaudhary\.m2\repository\org\apache\httpcomponents\httpcore\4.4.6\httpcore-4.4.6.jar;C:\Users\Sumit-Chaudhary\.m2\repository\org\apache\httpcomponents\httpmime\4.5.3\httpmime-4.5.3.jar;C:\Users\Sumit-Chaudhary\.m2\repository\org\hamcrest\hamcrest\2.1\hamcrest-2.1.jar;C:\Users\Sumit-Chaudhary\.m2\repository\org\ccil\cowan\tagsoup\tagsoup\1.2.1\tagsoup-1.2.1.jar;C:\Users\Sumit-Chaudhary\.m2\repository\io\rest-assured\xml-path\4.3.1\xml-path-4.3.1.jar;C:\Users\Sumit-Chaudhary\.m2\repository\io\rest-assured\rest-assured-common\4.3.1\rest-assured-common-4.3.1.jar;C:\Users\Sumit-Chaudhary\.m2\repository\jakarta\xml\bind\jakarta.xml.bind-api\2.3.3\jakarta.xml.bind-api-2.3.3.jar;C:\Users\Sumit-Chaudhary\.m2\repository\jakarta\activation\jakarta.activation-api\1.2.2\jakarta.activation-api-1.2.2.jar;C:\Users\Sumit-Chaudhary\.m2\repository\com\sun\xml\bind\jaxb-impl\2.3.3\jaxb-impl-2.3.3.jar;C:\Users\Sumit-Chaudhary\.m2\repository\com\jayway\jsonpath\json-path\2.5.0\json-path-2.5.0.jar;C:\Users\Sumit-Chaudhary\.m2\repository\io\rest-assured\json-path\4.3.1\json-path-4.3.1.jar;C:\Users\Sumit-Chaudhary\.m2\repository\org\codehaus\groovy\groovy-json\3.0.3\groovy-json-3.0.3.jar;C:\Users\Sumit-Chaudhary\.m2\repository\net\minidev\json-smart\2.3\json-smart-2.3.jar;C:\Users\Sumit-Chaudhary\.m2\repository\net\minidev\accessors-smart\1.2\accessors-smart-1.2.jar;C:\Users\Sumit-Chaudhary\.m2\repository\org\ow2\asm\asm\5.0.4\asm-5.0.4.jar;C:\Users\Sumit-Chaudhary\.m2\repository\org\awaitility\awaitility\4.1.0\awaitility-4.1.0.jar;C:\Users\Sumit-Chaudhary\.m2\repository\org\slf4j\slf4j-api\1.7.32\slf4j-api-1.7.32.jar;C:\Users\Sumit-Chaudhary\.m2\repository\org\slf4j\slf4j-simple\1.7.30\slf4j-simple-1.7.30.jar;"/>
    <property name="java.vm.vendor" value="Oracle Corporation"/>
    <property name="sun.arch.data.model" value="64"/>
    <property name="user.variant" value=""/>
    <property name="java.vendor.url" value="https://java.oracle.com/"/>
    <property name="user.timezone" value="Asia/Calcutta"/>
    <property name="os.name" value="Windows 10"/>
    <property name="java.vm.specification.version" value="21"/>
    <property name="sun.java.launcher" value="SUN_STANDARD"/>
    <property name="user.country" value="IN"/>
    <property name="sun.boot.library.path" value="C:\Program Files\Java\jdk-21\bin"/>
    <property name="sun.java.command" value="C:\Users\Sumit-Chaudhary\AppData\Local\Temp\surefire14844358696058819349\surefirebooter11758653532118530899.jar C:\Users\Sumit-Chaudhary\AppData\Local\Temp\surefire14844358696058819349 2024-01-20T20-34-39_661-jvmRun1 surefire8877441098568622176tmp surefire_05781645222517083911tmp"/>
    <property name="jdk.debug" value="release"/>
    <property name="surefire.test.class.path" value="F:\Sumit_Project_Works\RestAPIAutomationWithCucumber\target\test-classes;F:\Sumit_Project_Works\RestAPIAutomationWithCucumber\target\classes;C:\Users\Sumit-Chaudhary\.m2\repository\net\sf\jxls\jxls-reader\1.0.6\jxls-reader-1.0.6.jar;C:\Users\Sumit-Chaudhary\.m2\repository\commons-logging\commons-logging\1.1.1\commons-logging-1.1.1.jar;C:\Users\Sumit-Chaudhary\.m2\repository\commons-beanutils\commons-beanutils\1.8.2\commons-beanutils-1.8.2.jar;C:\Users\Sumit-Chaudhary\.m2\repository\commons-collections\commons-collections\3.2.1\commons-collections-3.2.1.jar;C:\Users\Sumit-Chaudhary\.m2\repository\commons-digester\commons-digester\2.0\commons-digester-2.0.jar;C:\Users\Sumit-Chaudhary\.m2\repository\org\apache\commons\commons-jexl\2.0.1\commons-jexl-2.0.1.jar;C:\Users\Sumit-Chaudhary\.m2\repository\org\apache\poi\poi-ooxml\3.9\poi-ooxml-3.9.jar;C:\Users\Sumit-Chaudhary\.m2\repository\dom4j\dom4j\1.6.1\dom4j-1.6.1.jar;C:\Users\Sumit-Chaudhary\.m2\repository\xml-apis\xml-apis\1.0.b2\xml-apis-1.0.b2.jar;C:\Users\Sumit-Chaudhary\.m2\repository\com\opencsv\opencsv\4.1\opencsv-4.1.jar;C:\Users\Sumit-Chaudhary\.m2\repository\org\apache\commons\commons-lang3\3.6\commons-lang3-3.6.jar;C:\Users\Sumit-Chaudhary\.m2\repository\org\apache\commons\commons-text\1.1\commons-text-1.1.jar;C:\Users\Sumit-Chaudhary\.m2\repository\org\apache\poi\poi-ooxml-schemas\3.9\poi-ooxml-schemas-3.9.jar;C:\Users\Sumit-Chaudhary\.m2\repository\org\apache\xmlbeans\xmlbeans\2.3.0\xmlbeans-2.3.0.jar;C:\Users\Sumit-Chaudhary\.m2\repository\stax\stax-api\1.0.1\stax-api-1.0.1.jar;C:\Users\Sumit-Chaudhary\.m2\repository\org\apache\poi\poi-scratchpad\3.9\poi-scratchpad-3.9.jar;C:\Users\Sumit-Chaudhary\.m2\repository\org\apache\poi\ooxml-schemas\1.1\ooxml-schemas-1.1.jar;C:\Users\Sumit-Chaudhary\.m2\repository\org\apache\poi\openxml4j\1.0-beta\openxml4j-1.0-beta.jar;C:\Users\Sumit-Chaudhary\.m2\repository\log4j\log4j\1.2.8\log4j-1.2.8.jar;C:\Users\Sumit-Chaudhary\.m2\repository\org\apache\poi\poi\3.9\poi-3.9.jar;C:\Users\Sumit-Chaudhary\.m2\repository\commons-codec\commons-codec\1.5\commons-codec-1.5.jar;C:\Users\Sumit-Chaudhary\.m2\repository\io\qameta\allure\allure-rest-assured\2.17.2\allure-rest-assured-2.17.2.jar;C:\Users\Sumit-Chaudhary\.m2\repository\io\qameta\allure\allure-attachments\2.17.2\allure-attachments-2.17.2.jar;C:\Users\Sumit-Chaudhary\.m2\repository\org\freemarker\freemarker\2.3.31\freemarker-2.3.31.jar;C:\Users\Sumit-Chaudhary\.m2\repository\org\json\json\20180813\json-20180813.jar;C:\Users\Sumit-Chaudhary\.m2\repository\com\auth0\java-jwt\4.4.0\java-jwt-4.4.0.jar;C:\Users\Sumit-Chaudhary\.m2\repository\com\fasterxml\jackson\core\jackson-databind\2.14.2\jackson-databind-2.14.2.jar;C:\Users\Sumit-Chaudhary\.m2\repository\com\fasterxml\jackson\core\jackson-annotations\2.14.2\jackson-annotations-2.14.2.jar;C:\Users\Sumit-Chaudhary\.m2\repository\com\fasterxml\jackson\core\jackson-core\2.14.2\jackson-core-2.14.2.jar;C:\Users\Sumit-Chaudhary\.m2\repository\org\bitbucket\b_c\jose4j\0.9.3\jose4j-0.9.3.jar;C:\Users\Sumit-Chaudhary\.m2\repository\io\jsonwebtoken\jjwt\0.7.0\jjwt-0.7.0.jar;C:\Users\Sumit-Chaudhary\.m2\repository\com\nimbusds\nimbus-jose-jwt\9.31\nimbus-jose-jwt-9.31.jar;C:\Users\Sumit-Chaudhary\.m2\repository\com\github\stephenc\jcip\jcip-annotations\1.0-1\jcip-annotations-1.0-1.jar;C:\Users\Sumit-Chaudhary\.m2\repository\org\hamcrest\hamcrest-library\1.3\hamcrest-library-1.3.jar;C:\Users\Sumit-Chaudhary\.m2\repository\org\hamcrest\hamcrest-core\1.3\hamcrest-core-1.3.jar;C:\Users\Sumit-Chaudhary\.m2\repository\io\cucumber\cucumber-java\6.11.0\cucumber-java-6.11.0.jar;C:\Users\Sumit-Chaudhary\.m2\repository\io\cucumber\cucumber-core\6.11.0\cucumber-core-6.11.0.jar;C:\Users\Sumit-Chaudhary\.m2\repository\io\cucumber\cucumber-gherkin\6.11.0\cucumber-gherkin-6.11.0.jar;C:\Users\Sumit-Chaudhary\.m2\repository\io\cucumber\cucumber-gherkin-messages\6.11.0\cucumber-gherkin-messages-6.11.0.jar;C:\Users\Sumit-Chaudhary\.m2\repository\io\cucumber\messages\15.0.0\messages-15.0.0.jar;C:\Users\Sumit-Chaudhary\.m2\repository\io\cucumber\tag-expressions\3.0.1\tag-expressions-3.0.1.jar;C:\Users\Sumit-Chaudhary\.m2\repository\io\cucumber\cucumber-expressions\10.3.0\cucumber-expressions-10.3.0.jar;C:\Users\Sumit-Chaudhary\.m2\repository\io\cucumber\datatable\3.5.0\datatable-3.5.0.jar;C:\Users\Sumit-Chaudhary\.m2\repository\io\cucumber\cucumber-plugin\6.11.0\cucumber-plugin-6.11.0.jar;C:\Users\Sumit-Chaudhary\.m2\repository\io\cucumber\docstring\6.11.0\docstring-6.11.0.jar;C:\Users\Sumit-Chaudhary\.m2\repository\io\cucumber\html-formatter\13.0.0\html-formatter-13.0.0.jar;C:\Users\Sumit-Chaudhary\.m2\repository\io\cucumber\create-meta\4.0.0\create-meta-4.0.0.jar;C:\Users\Sumit-Chaudhary\.m2\repository\org\apiguardian\apiguardian-api\1.1.2\apiguardian-api-1.1.2.jar;C:\Users\Sumit-Chaudhary\.m2\repository\info\cukes\cucumber-jvm-deps\1.0.5\cucumber-jvm-deps-1.0.5.jar;C:\Users\Sumit-Chaudhary\.m2\repository\io\qameta\allure\allure-cucumber6-jvm\2.13.10\allure-cucumber6-jvm-2.13.10.jar;C:\Users\Sumit-Chaudhary\.m2\repository\io\qameta\allure\allure-java-commons\2.13.10\allure-java-commons-2.13.10.jar;C:\Users\Sumit-Chaudhary\.m2\repository\io\qameta\allure\allure-model\2.13.10\allure-model-2.13.10.jar;C:\Users\Sumit-Chaudhary\.m2\repository\org\apache\tika\tika-core\1.26\tika-core-1.26.jar;C:\Users\Sumit-Chaudhary\.m2\repository\javax\xml\bind\jaxb-api\2.3.1\jaxb-api-2.3.1.jar;C:\Users\Sumit-Chaudhary\.m2\repository\javax\activation\javax.activation-api\1.2.0\javax.activation-api-1.2.0.jar;C:\Users\Sumit-Chaudhary\.m2\repository\javax\activation\activation\1.1.1\activation-1.1.1.jar;C:\Users\Sumit-Chaudhary\.m2\repository\org\jooq\joor-java-8\0.9.14\joor-java-8-0.9.14.jar;C:\Users\Sumit-Chaudhary\.m2\repository\io\cucumber\gherkin\18.0.0\gherkin-18.0.0.jar;C:\Users\Sumit-Chaudhary\.m2\repository\commons-io\commons-io\2.6\commons-io-2.6.jar;C:\Users\Sumit-Chaudhary\.m2\repository\io\cucumber\cucumber-junit\6.11.0\cucumber-junit-6.11.0.jar;C:\Users\Sumit-Chaudhary\.m2\repository\org\assertj\assertj-core\3.9.1\assertj-core-3.9.1.jar;C:\Users\Sumit-Chaudhary\.m2\repository\org\junit\jupiter\junit-jupiter-engine\5.7.2\junit-jupiter-engine-5.7.2.jar;C:\Users\Sumit-Chaudhary\.m2\repository\org\junit\platform\junit-platform-engine\1.7.2\junit-platform-engine-1.7.2.jar;C:\Users\Sumit-Chaudhary\.m2\repository\org\opentest4j\opentest4j\1.2.0\opentest4j-1.2.0.jar;C:\Users\Sumit-Chaudhary\.m2\repository\org\junit\platform\junit-platform-commons\1.7.2\junit-platform-commons-1.7.2.jar;C:\Users\Sumit-Chaudhary\.m2\repository\org\junit\jupiter\junit-jupiter-api\5.7.2\junit-jupiter-api-5.7.2.jar;C:\Users\Sumit-Chaudhary\.m2\repository\org\junit\vintage\junit-vintage-engine\5.7.2\junit-vintage-engine-5.7.2.jar;C:\Users\Sumit-Chaudhary\.m2\repository\junit\junit\4.13\junit-4.13.jar;C:\Users\Sumit-Chaudhary\.m2\repository\io\rest-assured\rest-assured\4.3.1\rest-assured-4.3.1.jar;C:\Users\Sumit-Chaudhary\.m2\repository\org\codehaus\groovy\groovy\3.0.3\groovy-3.0.3.jar;C:\Users\Sumit-Chaudhary\.m2\repository\org\codehaus\groovy\groovy-xml\3.0.3\groovy-xml-3.0.3.jar;C:\Users\Sumit-Chaudhary\.m2\repository\org\apache\httpcomponents\httpclient\4.5.3\httpclient-4.5.3.jar;C:\Users\Sumit-Chaudhary\.m2\repository\org\apache\httpcomponents\httpcore\4.4.6\httpcore-4.4.6.jar;C:\Users\Sumit-Chaudhary\.m2\repository\org\apache\httpcomponents\httpmime\4.5.3\httpmime-4.5.3.jar;C:\Users\Sumit-Chaudhary\.m2\repository\org\hamcrest\hamcrest\2.1\hamcrest-2.1.jar;C:\Users\Sumit-Chaudhary\.m2\repository\org\ccil\cowan\tagsoup\tagsoup\1.2.1\tagsoup-1.2.1.jar;C:\Users\Sumit-Chaudhary\.m2\repository\io\rest-assured\xml-path\4.3.1\xml-path-4.3.1.jar;C:\Users\Sumit-Chaudhary\.m2\repository\io\rest-assured\rest-assured-common\4.3.1\rest-assured-common-4.3.1.jar;C:\Users\Sumit-Chaudhary\.m2\repository\jakarta\xml\bind\jakarta.xml.bind-api\2.3.3\jakarta.xml.bind-api-2.3.3.jar;C:\Users\Sumit-Chaudhary\.m2\repository\jakarta\activation\jakarta.activation-api\1.2.2\jakarta.activation-api-1.2.2.jar;C:\Users\Sumit-Chaudhary\.m2\repository\com\sun\xml\bind\jaxb-impl\2.3.3\jaxb-impl-2.3.3.jar;C:\Users\Sumit-Chaudhary\.m2\repository\com\jayway\jsonpath\json-path\2.5.0\json-path-2.5.0.jar;C:\Users\Sumit-Chaudhary\.m2\repository\io\rest-assured\json-path\4.3.1\json-path-4.3.1.jar;C:\Users\Sumit-Chaudhary\.m2\repository\org\codehaus\groovy\groovy-json\3.0.3\groovy-json-3.0.3.jar;C:\Users\Sumit-Chaudhary\.m2\repository\net\minidev\json-smart\2.3\json-smart-2.3.jar;C:\Users\Sumit-Chaudhary\.m2\repository\net\minidev\accessors-smart\1.2\accessors-smart-1.2.jar;C:\Users\Sumit-Chaudhary\.m2\repository\org\ow2\asm\asm\5.0.4\asm-5.0.4.jar;C:\Users\Sumit-Chaudhary\.m2\repository\org\awaitility\awaitility\4.1.0\awaitility-4.1.0.jar;C:\Users\Sumit-Chaudhary\.m2\repository\org\slf4j\slf4j-api\1.7.32\slf4j-api-1.7.32.jar;C:\Users\Sumit-Chaudhary\.m2\repository\org\slf4j\slf4j-simple\1.7.30\slf4j-simple-1.7.30.jar;"/>
    <property name="allure.results.directory" value="F:\Sumit_Project_Works\RestAPIAutomationWithCucumber\target/allure-results"/>
    <property name="sun.cpu.endian" value="little"/>
    <property name="user.home" value="C:\Users\Sumit-Chaudhary"/>
    <property name="user.language" value="en"/>
    <property name="java.specification.vendor" value="Oracle Corporation"/>
    <property name="java.version.date" value="2023-10-17"/>
    <property name="java.home" value="C:\Program Files\Java\jdk-21"/>
    <property name="file.separator" value="\"/>
    <property name="basedir" value="F:\Sumit_Project_Works\RestAPIAutomationWithCucumber"/>
    <property name="java.vm.compressedOopsMode" value="Zero based"/>
    <property name="line.separator" value="&#10;"/>
    <property name="java.vm.specification.vendor" value="Oracle Corporation"/>
    <property name="java.specification.name" value="Java Platform API Specification"/>
    <property name="surefire.real.class.path" value="C:\Users\Sumit-Chaudhary\AppData\Local\Temp\surefire14844358696058819349\surefirebooter11758653532118530899.jar"/>
    <property name="user.script" value=""/>
    <property name="sun.management.compiler" value="HotSpot 64-Bit Tiered Compilers"/>
    <property name="cucumber.plugin" value="io.qameta.allure.cucumber6jvm.AllureCucumber6Jvm"/>
    <property name="java.runtime.version" value="21.0.1+12-LTS-29"/>
    <property name="user.name" value="Sumit-Chaudhary"/>
    <property name="stdout.encoding" value="Cp1252"/>
    <property name="path.separator" value=";"/>
    <property name="os.version" value="10.0"/>
    <property name="java.runtime.name" value="Java(TM) SE Runtime Environment"/>
    <property name="file.encoding" value="UTF-8"/>
    <property name="java.vm.name" value="Java HotSpot(TM) 64-Bit Server VM"/>
    <property name="localRepository" value="C:\Users\Sumit-Chaudhary\.m2\repository"/>
    <property name="java.vendor.url.bug" value="https://bugreport.java.com/bugreport/"/>
    <property name="java.io.tmpdir" value="C:\Users\SUMIT-~1\AppData\Local\Temp\"/>
    <property name="java.version" value="21.0.1"/>
    <property name="user.dir" value="F:\Sumit_Project_Works\RestAPIAutomationWithCucumber"/>
    <property name="os.arch" value="amd64"/>
    <property name="java.vm.specification.name" value="Java Virtual Machine Specification"/>
    <property name="sun.os.patch.level" value=""/>
    <property name="native.encoding" value="Cp1252"/>
    <property name="java.library.path" value="C:\Program Files\Java\jdk-21\bin;C:\Windows\Sun\Java\bin;C:\Windows\system32;C:\Windows;C:\Program Files\Common Files\Oracle\Java\javapath;C:\Windows\system32;C:\Windows;C:\Windows\System32\Wbem;C:\Windows\System32\WindowsPowerShell\v1.0\;C:\Windows\System32\OpenSSH\;C:\Program Files\dotnet\;C:\Program Files\Java\jdk-21\bin;C:\apache-maven-3.8.2\bin;C:\Program Files\nodejs;C:\Users\Sumit-Chaudhary\AppData\Local\Android\Sdk\tools;C:\Users\Sumit-Chaudhary\AppData\Local\Android\Sdk\platform-tools;C:\Program Files\nodejs\node_modules\npm\bin;C:\Program Files\Git\cmd;C:\Users\Sumit-Chaudhary\AppData\Local\Microsoft\WindowsApps;C:\Users\Sumit-Chaudhary\AppData\Roaming\npm;C:\Users\Sumit-Chaudhary\AppData\Local\Programs\Microsoft VS Code\bin;C:\Program Files\JetBrains\IntelliJ IDEA Community Edition 2023.3.2\bin;;."/>
    <property name="java.vm.info" value="mixed mode, sharing"/>
    <property name="stderr.encoding" value="Cp1252"/>
    <property name="java.vendor" value="Oracle Corporation"/>
    <property name="java.vm.version" value="21.0.1+12-LTS-29"/>
    <property name="sun.io.unicode.encoding" value="UnicodeLittle"/>
    <property name="java.class.version" value="65.0"/>
  </properties>
  <testcase name="Run the DELETE Request to verify the delete functionality" classname="Check delete functionality" time="1.932">
    <system-out><![CDATA[
Scenario: Run the DELETE Request to verify the delete functionality &amp#27;[90m# src/test/resources/features/VerifyDELETERequest.feature:3&amp#27;[0m
  &amp#27;[32mGiven &amp#27;[0m&amp#27;[32mto me delete url till the user id&amp#27;[0m                           &amp#27;[90m# com.RestAPIAutomationWithCucumber.qa.stepdefs.TestDELETERequest.to_me_delete_url_till_the_user_id()&amp#27;[0m
  &amp#27;[32mWhen &amp#27;[0m&amp#27;[32mrun the delete request with user id&amp#27;[0m                          &amp#27;[90m# com.RestAPIAutomationWithCucumber.qa.stepdefs.TestDELETERequest.run_the_delete_request_with_user_id()&amp#27;[0m
  &amp#27;[32mThen &amp#27;[0m&amp#27;[32mverify the delete response &amp#27;[0m&amp#27;[32m&amp#27;[1m204&amp#27;[0m&amp#27;[32m status code&amp#27;[0m                   &amp#27;[90m# com.RestAPIAutomationWithCucumber.qa.stepdefs.TestDELETERequest.verify_the_delete_response_status_code(int)&amp#27;[0m
]]></system-out>
    <system-err><![CDATA[log4j:WARN No appenders could be found for logger (org.apache.http.impl.conn.BasicClientConnectionManager).
log4j:WARN Please initialize the log4j system properly.
]]></system-err>
  </testcase>
  <testcase name="Run the GET Request and fetch the data to verify user records and status code." classname="Check the users reports and validate the data" time="0.315">
    <system-out><![CDATA[
Scenario: Run the GET Request and fetch the data to verify user records and status code. &amp#27;[90m# src/test/resources/features/VerifyGETRequest.feature:3&amp#27;[0m
  &amp#27;[32mGiven &amp#27;[0m&amp#27;[32mto me url till the users&amp#27;[0m                                                         &amp#27;[90m# com.RestAPIAutomationWithCucumber.qa.stepdefs.TestGETRequest.to_me_url_till_the_users()&amp#27;[0m
  &amp#27;[32mWhen &amp#27;[0m&amp#27;[32mrun the GET request&amp#27;[0m                                                               &amp#27;[90m# com.RestAPIAutomationWithCucumber.qa.stepdefs.TestGETRequest.run_the_get_request()&amp#27;[0m
  &amp#27;[32mThen &amp#27;[0m&amp#27;[32mverify the &amp#27;[0m&amp#27;[32m&amp#27;[1m200&amp#27;[0m                                                                    &amp#27;[90m# com.RestAPIAutomationWithCucumber.qa.stepdefs.TestGETRequest.verify_the(int)&amp#27;[0m
]]></system-out>
  </testcase>
  <testcase name="Run the PATCH Request and update the existing data to verify existing user records is update or not." classname="Check update functionality for existing user data using PATCH method" time="0.669">
    <system-out><![CDATA[
Scenario: Run the PATCH Request and update the existing data to verify existing user records is update or not. &amp#27;[90m# src/test/resources/features/VerifyPATCHRequest.feature:3&amp#27;[0m
  &amp#27;[32mGiven &amp#27;[0m&amp#27;[32mthe data that need to be update&amp#27;[0m                                                                        &amp#27;[90m# com.RestAPIAutomationWithCucumber.qa.stepdefs.TestPATCHRequest.the_data_that_need_to_be_update()&amp#27;[0m
  &amp#27;[32mWhen &amp#27;[0m&amp#27;[32mrun the PATCH request with data&amp#27;[0m                                                                         &amp#27;[90m# com.RestAPIAutomationWithCucumber.qa.stepdefs.TestPATCHRequest.run_the_patch_request_with_data()&amp#27;[0m
  &amp#27;[32mThen &amp#27;[0m&amp#27;[32mverify the PATCH response &amp#27;[0m&amp#27;[32m&amp#27;[1m200&amp#27;[0m&amp#27;[32m status code&amp#27;[0m                                                               &amp#27;[90m# com.RestAPIAutomationWithCucumber.qa.stepdefs.TestPATCHRequest.verify_the_patch_response_status_code(java.lang.Integer)&amp#27;[0m
]]></system-out>
  </testcase>
  <testcase name="Run the POST Request and create the new data" classname="Check new user create data using POST method" time="0.663">
    <system-out><![CDATA[
Scenario: Run the POST Request and create the new data &amp#27;[90m# src/test/resources/features/VerifyPOSTRequest.feature:3&amp#27;[0m
  &amp#27;[32mGiven &amp#27;[0m&amp#27;[32mto me post url&amp#27;[0m                                 &amp#27;[90m# com.RestAPIAutomationWithCucumber.qa.stepdefs.TestPOSTRequest.to_me_post_url()&amp#27;[0m
  &amp#27;[32mWhen &amp#27;[0m&amp#27;[32mrun the POST request with data&amp#27;[0m                  &amp#27;[90m# com.RestAPIAutomationWithCucumber.qa.stepdefs.TestPOSTRequest.run_the_post_request_with_data()&amp#27;[0m
  &amp#27;[32mThen &amp#27;[0m&amp#27;[32mverify the post response &amp#27;[0m&amp#27;[32m&amp#27;[1m201&amp#27;[0m&amp#27;[32m status code&amp#27;[0m        &amp#27;[90m# com.RestAPIAutomationWithCucumber.qa.stepdefs.TestPOSTRequest.verify_the_post_response_status_code(java.lang.Integer)&amp#27;[0m
]]></system-out>
  </testcase>
  <testcase name="Run the PUT Request and update the existing data to verify existing user records is update or not." classname="Check update functionality for existing user data using PUT method" time="0.695">
    <system-out><![CDATA[
Scenario: Run the PUT Request and update the existing data to verify existing user records is update or not. &amp#27;[90m# src/test/resources/features/VerifyPUTRequest.feature:3&amp#27;[0m
  &amp#27;[32mGiven &amp#27;[0m&amp#27;[32mto me data that need to be update&amp#27;[0m                                                                    &amp#27;[90m# com.RestAPIAutomationWithCucumber.qa.stepdefs.TestPUTRequest.to_me_data_that_need_to_be_update()&amp#27;[0m
  &amp#27;[32mWhen &amp#27;[0m&amp#27;[32mrun the PUT request with data&amp#27;[0m                                                                         &amp#27;[90m# com.RestAPIAutomationWithCucumber.qa.stepdefs.TestPUTRequest.run_the_put_request_with_data()&amp#27;[0m
  &amp#27;[32mThen &amp#27;[0m&amp#27;[32mverify the PUT response &amp#27;[0m&amp#27;[32m&amp#27;[1m200&amp#27;[0m&amp#27;[32m status code&amp#27;[0m                                                               &amp#27;[90m# com.RestAPIAutomationWithCucumber.qa.stepdefs.TestPUTRequest.verify_the_put_response_status_code(java.lang.Integer)&amp#27;[0m
]]></system-out>
  </testcase>
</testsuite>